"6df0654a8a4ec4df3dd8091424d2fbb4d795dc0b  src/common/aes.c\n"
"a1c0905056c7df54a5ea60bedbc800e9ad5a5618  src/common/crypto.c\n"
"e690691451ae42afdaff915313ead860b1d021d0  src/common/crypto_format.c\n"
"02c1744d1e1db0967595bc6bd2d69432692d082f  src/common/torgzip.c\n"
"fc54b565be923596714a3582c0ea20af860370aa  src/common/tortls.c\n"
"283a40239ce544dd4a0e8cf0386cd6d17b2b39ff  src/common/crypto_curve25519.c\n"
"0cf79767798a498efc95379c01a5f1396021783a  src/common/address.h\n"
"947ef902f15f556f176b1115f09d9966e377347d  src/common/aes.h\n"
"2ad59cee80471c42536e66e24e73a8948e345dcf  src/common/ciphers.inc\n"
"77d915a295b490da80035e21b9dfad39e2a04707  src/common/compat.h\n"
"88a4d54d588694ab54ff6c036adc332e3ab5777a  src/common/compat_libevent.h\n"
"a7342537712390860a0b8b7a6b3ed27874c2b903  src/common/container.h\n"
"ec9d237bebfbd7aaffe2fb93a12d8ace7ec82f9b  src/common/crypto.h\n"
"9abf4ec9d5b39d49cc117016bf909767d337f3e5  src/common/crypto_curve25519.h\n"
"9ed1bb165e8d0532cae5bfd17e27d037d2a05bf4  src/common/di_ops.h\n"
"697be45dc2e1ae6537b34dc72abf6394952a1b87  src/common/memarea.h\n"
"0b594bada47b6e23358fa924cffbf24e01180d60  src/common/mempool.h\n"
"c213ad4a89779f9d43243e05da1760d632ba5e1d  src/common/procmon.h\n"
"bd43b0ce70513a148b3381e7d591df705be77a6b  src/common/torgzip.h\n"
"8d71f0488728c324a5aabfd92d209350973b490a  src/common/torint.h\n"
"bb47abd0e406d9a7fb4fe813647df7aa2ed1f0e0  src/common/torlog.h\n"
"1fd544f6eceecd6be0c3f3ef7320f47c6db0c5b5  src/common/tortls.h\n"
"1720257ed99bdd30b836da5927cd128759ec54ad  src/common/util.h\n"
